{
  "name": "vite",
  "$schema": "../../node_modules/nx/schemas/project-schema.json",
  "sourceRoot": "apps/vite/src",
  "projectType": "application",
  "tags": [],
  "// targets": "to see all targets run: nx show project vite --web",
  "targets": {}
}
